C:\Users\mfonken\Desktop\apriltag_jetson\apriltag_jetson\src\apriltag_wrapper.cpp|637073514497560936|/home/v/mf_ws/src/apriltag_jetson|
C:\Users\mfonken\Desktop\apriltag_jetson\apriltag_jetson\src\apriltag_ros_node.cpp|637060611285322935|/home/v/mf_ws/src/apriltag_jetson|
C:\Users\mfonken\Desktop\apriltag_jetson\apriltag_jetson\src\ImageSubscriber.cpp|637066506204113118|/home/v/mf_ws/src/apriltag_jetson|
C:\Users\mfonken\Desktop\apriltag_jetson\apriltag_jetson\src\PropagationManager.cpp|637073452934494223|/home/v/mf_ws/src/apriltag_jetson|
C:\Users\mfonken\Desktop\apriltag_jetson\apriltag_jetson\src\ROIManager.cpp|637073504387203891|/home/v/mf_ws/src/apriltag_jetson|
C:\Users\mfonken\Desktop\apriltag_jetson\apriltag_jetson\include\arpiltag_wrapper.h|637073480773831756|/home/v/mf_ws/src/apriltag_jetson|
C:\Users\mfonken\Desktop\apriltag_jetson\apriltag_jetson\include\ImageSubscriber.h|637073458114058960|/home/v/mf_ws/src/apriltag_jetson|
C:\Users\mfonken\Desktop\apriltag_jetson\apriltag_jetson\include\PropagationManager.h|637073451960616200|/home/v/mf_ws/src/apriltag_jetson|
C:\Users\mfonken\Desktop\apriltag_jetson\apriltag_jetson\include\ROIManager.h|637073550295951988|/home/v/mf_ws/src/apriltag_jetson|
C:\Users\mfonken\Desktop\apriltag_jetson\apriltag_jetson\launch\apriltag_wrapper.launch|637066490139113145|/home/v/mf_ws/src/apriltag_jetson|
C:\Users\mfonken\Desktop\apriltag_jetson\apriltag_jetson\package.xml|637060523680797662|/home/v/mf_ws/src/apriltag_jetson|
C:\Users\mfonken\Desktop\apriltag_jetson\apriltag_jetson\CMakeLists.txt|637073379327421811|/home/v/mf_ws/src/apriltag_jetson|
