C:\Users\mfonken\Desktop\apriltag_jetson\apriltag_jetson\src\apriltag_wrapper.cpp|637068398724380903|/home/v/mf_ws/src/apriltag_jetson|
C:\Users\mfonken\Desktop\apriltag_jetson\apriltag_jetson\src\apriltag_ros_node.cpp|637060611285322935|/home/v/mf_ws/src/apriltag_jetson|
C:\Users\mfonken\Desktop\apriltag_jetson\apriltag_jetson\src\ImageSubscriber.cpp|637066506204113118|/home/v/mf_ws/src/apriltag_jetson|
C:\Users\mfonken\Desktop\apriltag_jetson\apriltag_jetson\src\PropagationManager.cpp|637068994268723388|/home/v/mf_ws/src/apriltag_jetson|
C:\Users\mfonken\Desktop\apriltag_jetson\apriltag_jetson\src\ROIManager.cpp|637068994689723415|/home/v/mf_ws/src/apriltag_jetson|
C:\Users\mfonken\Desktop\apriltag_jetson\apriltag_jetson\include\arpiltag_wrapper.h|637068396255101013|/home/v/mf_ws/src/apriltag_jetson|
C:\Users\mfonken\Desktop\apriltag_jetson\apriltag_jetson\include\ImageSubscriber.h|637066500173134837|/home/v/mf_ws/src/apriltag_jetson|
C:\Users\mfonken\Desktop\apriltag_jetson\apriltag_jetson\include\PropagationManager.h|637068994208258930|/home/v/mf_ws/src/apriltag_jetson|
C:\Users\mfonken\Desktop\apriltag_jetson\apriltag_jetson\include\ROIManager.h|637068994725687517|/home/v/mf_ws/src/apriltag_jetson|
C:\Users\mfonken\Desktop\apriltag_jetson\apriltag_jetson\launch\apriltag_wrapper.launch|637066490139113145|/home/v/mf_ws/src/apriltag_jetson|
C:\Users\mfonken\Desktop\apriltag_jetson\apriltag_jetson\package.xml|637060523680797662|/home/v/mf_ws/src/apriltag_jetson|
C:\Users\mfonken\Desktop\apriltag_jetson\apriltag_jetson\CMakeLists.txt|637060523447820782|/home/v/mf_ws/src/apriltag_jetson|
